{
  "content": [
    {
      "cityId": 1,
      "cityName": "Brest"
    },
    {
      "cityId": 2,
      "cityName": "Minsk"
    }
  ],
  "pageable": {
    "sort": {
      "sorted": false,
      "unsorted": true,
      "empty": true
    },
    "offset": 0,
    "pageNumber": 0,
    "pageSize": 2,
    "paged": true,
    "unpaged": false
  },
  "totalPages": 4,
  "totalElements": 8,
  "last": false,
  "number": 0,
  "sort": {
    "sorted": false,
    "unsorted": true,
    "empty": true
  },
  "size": 2,
  "first": true,
  "numberOfElements": 2,
  "empty": false
}